\relax 
\@writefile{tdo}{\contentsline {todo}{}{1}}
\pgfsyspdfmark {pgfid1}{19531038}{31092389}
\@writefile{tdo}{\contentsline {todo}{Below is just a very rough abstract to focus the mind. You will have to improve on this when the work is done.}{1}}
\pgfsyspdfmark {pgfid2}{19531038}{25310658}
\citation{solms_domainSpecificLanguageForUrdad_2011}
\citation{solms_technologyNeutralBusinessProcessDesignUsingUrdad_2007}
\citation{solms_domainSpecificLanguageForUrdad_2011}
\citation{solms_urdadAsASemiFormalApproachToAnalysisAndDesign_2010}
\citation{solms_urdadAsQualityDrivenAnalysisAndDesignProcess_2011}
\@writefile{tdo}{\contentsline {todo}{You will need change the title page as per requirements for COS-700 course.}{2}}
\pgfsyspdfmark {pgfid3}{19531038}{35641944}
\@writefile{toc}{\contentsline {section}{\numberline {1}Introduction}{2}}
\newlabel{sec_introduction}{{1}{2}}
\@writefile{toc}{\contentsline {section}{\numberline {2}Related work}{2}}
\newlabel{secRelatedWork}{{2}{2}}
\@writefile{tdo}{\contentsline {todo}{}{2}}
\pgfsyspdfmark {pgfid4}{19531038}{14228935}
\bibstyle{abbrv}
\bibdata{bibliography}
\bibcite{solms_technologyNeutralBusinessProcessDesignUsingUrdad_2007}{1}
\@writefile{toc}{\contentsline {section}{\numberline {3}A method for re-architecting}{3}}
\newlabel{sec_method}{{3}{3}}
\@writefile{tdo}{\contentsline {todo}{Discuss here the method you are using including your selection of model querying and text generation tools.}{3}}
\pgfsyspdfmark {pgfid5}{19531038}{40287864}
\@writefile{toc}{\contentsline {section}{\numberline {4}Implementation}{3}}
\newlabel{sec_implementation}{{4}{3}}
\@writefile{toc}{\contentsline {section}{\numberline {5}Critical analysis}{3}}
\@writefile{tdo}{\contentsline {todo}{Compare theproposed method with other methods identifying the relative strengths and weaknesses. Also analyze the quality software architecture of the case study -- i.e.\ the output of your method.}{3}}
\pgfsyspdfmark {pgfid6}{19531038}{21251903}
\@writefile{tdo}{\contentsline {todo}{Compare the usefulness of the documents generated with this approach with that of other approaches including the build-in documentation generation of the MagicDraw tool. Also discuss why it is possible to generate so much richer documentation from an URDAD model than from a general UML model.}{3}}
\pgfsyspdfmark {pgfid7}{8865054}{19118548}
\pgfsyspdfmark {pgfid10}{33621278}{19132004}
\pgfsyspdfmark {pgfid11}{35243294}{18886818}
\@writefile{tdo}{\contentsline {todo}{Critically analyze the approach you usd against model-to-model transformation approaches and discuss the benefits of generating documentation from a URDAD-DSL model instead of an UML-encoded URDAD model.}{3}}
\pgfsyspdfmark {pgfid12}{19531038}{16971610}
\@writefile{toc}{\contentsline {section}{\numberline {6}Conclusion}{3}}
\newlabel{sec_conclusions}{{6}{3}}
\@writefile{tdo}{\contentsline {todo}{Sumamrize your work and its relevance. Discuss potential future work}{3}}
\pgfsyspdfmark {pgfid13}{19531038}{11502199}
\bibcite{solms_domainSpecificLanguageForUrdad_2011}{2}
\bibcite{solms_urdadAsQualityDrivenAnalysisAndDesignProcess_2011}{3}
\bibcite{solms_urdadAsASemiFormalApproachToAnalysisAndDesign_2010}{4}
