\contentsline {section}{\numberline {1}Introduction}{2}
\contentsline {section}{\numberline {2}Related work}{2}
\contentsline {section}{\numberline {3}A method for re-architecting}{3}
\contentsline {section}{\numberline {4}Implementation}{3}
\contentsline {section}{\numberline {5}Critical analysis}{3}
\contentsline {section}{\numberline {6}Conclusion}{3}
